{
	"code": "en-US",
	"name": "English",
	"long_name": "English - USA",
	"cat_pre": "Precatechumenate",
	"cat_cat": "Catechumenate",
	"cat_ele": "Election",
	"cat_lit": "Liturgical",
	"tag_pan": "Bread",
	"tag_lib": "Children",
	"tag_vin": "Communion",
	"tag_pas": "Easter",
	"tag_int": "Entrance",
	"tag_fin": "Final",
	"tag_lau": "Laudes",
	"tag_com": "Lent",
	"tag_pax": "Peace",
	"tag_pen": "Pentecost",
	"tag_vir": "Mary",
	"site_title": "He Rose From Death",
	"site_no_audio": "No audio exists for this psalm.",
	"site_sort": "Sort",
	"site_categories": "Categories",
	"site_clear": "Clear",
	"site_close": "Close",
	"modal_no_psalm": "This psalm does not exist in spanish.",
	"sec_CANTOR": "psa",
	"sec_ASSEMBLY": "con",
	"chords": [
		"A", "Am", "A7", "A9", "Am9", "Am7", "Amaj7", "Amaj9",
		"B", "Bm", "B7", "B9", "Bm9", "Bm7", "Bmaj7", "Bmaj9",
		"C", "Cm", "C7", "C9", "Cm9", "Cm7", "Cmaj7", "Cmaj9",
		"D", "Dm", "D7", "D9", "Dm9", "Dm7", "Dmaj7", "Dmaj9",
		"E", "Em", "E7", "E9", "Em9", "Em7", "Emaj7", "Emaj9",
		"F", "Fm", "F7", "F9", "Fm9", "Fm7", "Fmaj7", "Fmaj9",
		"G", "Gm", "G7", "G9", "Gm9", "Gm7", "Gmaj7", "Gmaj9"
	]
}
